﻿{
  "output_file": "Settings/settings.json",
  "OnlyLive": {
    "type": "checkbox",
    "value": true,
    "label": "Only when live",
    "tooltip": "Command is only active when stream is live",
    "group": "General"
  },
  "Enable": {
    "type": "checkbox",
    "value": true,
    "label": "Enable Timer",
    "tooltip": "Enable the Timer",
    "group": "General"
  },
  "RemindInterval": {
    "type": "numberbox",
    "value": 15,
    "label": "Interval reminder Message in seconds",
    "tooltip": "How often should the Bot remind everyone",
    "group": "Reminder"
  },
  "ReminderTimeFrame": {
    "type": "textbox",
    "value": "11:00-12:00",
    "label": "Intervall of the first Reminder",
    "tooltip": "Care of the Format",
    "group": "Reminder"
  },
  "ReminderMessage": {
    "type": "textbox",
    "value": "",
    "label": "Reminder Message",
    "tooltip": "The Message the Bot should send",
    "group": "Reminder"
  },
  "HurryUpInterval": {
    "type": "numberbox",
    "value": 15,
    "label": "Interval reminder Message in seconds",
    "tooltip": "How often should the Bot remind everyone",
    "group": "Hurry up"
  },
  "HurryUpTimeFrame": {
    "type": "textbox",
    "value": "11:00-12:00",
    "label": "Intervall of the final Countdown",
    "tooltip": "Care of the Format",
    "group": "Hurry up"
  },
  "HurryUpMessage": {
    "type": "textbox",
    "value": "",
    "label": "Hurry up Message",
    "tooltip": "The Message in the last minutes",
    "group": "Hurry up"
  },
  "button_readme": {
    "type": "button",
    "label": "Open ReadMe File",
    "tooltip": "Opens the readme of this script.",
    "function": "OpenReadMe",
    "wsevent": "",
    "group": "Support"
  },
  "copyright": {
    "type": "button",
    "label": "Open Copyright File",
    "tooltip": "Opens the Copyright of this script.",
    "function": "OpenCopyright",
    "wsevent": "",
    "group": "Support"
  },
  "twitchChannel": {
    "type": "button",
    "label": "Opens kobi´s twitchChannel",
    "tooltip": "Opens kobi´s twitchChannel",
    "function": "OpenStream",
    "wsevent": "",
    "group": "Support"
  }
  //"btnStartReminder": {
  //  "type": "button",
  //  "label": "Start Reminder",
  //  "tooltip": "Starts the Reminder!",
  //  "function": "StartTimer",
  //  "wsevent": "",
  //  "group": "General"
  //},
  //"btnStop": {
  //  "type": "button",
  //  "label": "Stop",
  //  "tooltip": "Stops the Reminder!",
  //  "function": "StopTimer",
  //  "wsevent": "",
  //  "group": "General"
  //}
}